Data,MamaCisnienie
04.01.2021,3
04.01.2021,3
05.01.2021,3
05.01.2021,33
05.01.2021,3
05.01.2021,2
05.01.2021,23
07.01.2021,1
07.01.2021,9
07.01.2021,3
07.01.2021,3
07.01.2021,1
07.01.2021,1
07.01.2021,12
07.01.2021,3
07.01.2021,5
07.01.2021,5
07.01.2021,3
